proj_3_sowmya • tidylog
…
The number of times a country showed up in high-ranking
sections

i.e., finals, semifinals etc.

We’ll be looking at the artist_country and
section variables.

distinct(euro, across(artist_country))

## distinct: removed 1,953 rows (97%), 52 rows remaining

## # A tibble: 52 × 1
##    artist_country
##    <chr>         
##  1 Ukraine       
##  2 Netherlands   
##  3 Greece        
##  4 Portugal      
##  5 Bulgaria      
##  6 Slovenia      
##  7 Armenia       
##  8 Norway        
##  9 Lithuania     
## 10 Moldova       
## # … with 42 more rows
…
